{
  "redirections": [

    {
        "source_path_from_root": "/articles/healthcare-apis/configure-cosmos-db.md",
        "redirect_url": "/azure/healthcare-apis/configure-database",
        "redirect_document_id": false
    },
    {
        "source_path_from_root": "/articles/healthcare-apis/bring-your-own-key.md",
        "redirect_url": "/azure/healthcare-apis/customer-managed-key",
        "redirect_document_id": false
    },
    {
        "source_path_from_root": "/articles/healthcare-apis/tutorial-1-decision-flow.md",
        "redirect_url": "/azure/healthcare-apis/fhir-app-registration",
        "redirect_document_id": false
    },
    {
        "source_path_from_root": "/articles/healthcare-apis/fhir-oss-cli-quickstart.md",
        "redirect_url": "/azure/healthcare-apis/fhir-paas-cli-quickstart",
        "redirect_document_id": false
    },
    {
        "source_path_from_root": "/articles/healthcare-apis/fhir-oss-portal-quickstart.md",
        "redirect_url": "/azure/healthcare-apis/fhir-paas-portal-quickstart",
        "redirect_document_id": false
    },
    {
        "source_path_from_root": "/articles/healthcare-apis/fhir-oss-powershell-quickstart.md",
        "redirect_url": "/azure/healthcare-apis/fhir-paas-powershell-quickstart",
        "redirect_document_id": false
    },
    {
        "source_path_from_root": "/articles/healthcare-apis/overview-open-source-server.md",
        "redirect_url": "/azure/healthcare-apis/overview",
        "redirect_document_id": false
    },
    {
        "source_path_from_root": "/articles/healthcare-apis/policy-samples.md",
        "redirect_url": "/azure/healthcare-apis/policy-reference",
        "redirect_document_id": false
    },
    {
        "source_path_from_root": "/articles/healthcare-apis/tutorial-2-setup-environment.md",
        "redirect_url": "/azure/healthcare-apis/tutorial-web-app-fhir-server",
        "redirect_document_id": false
    },
    {
        "source_path_from_root": "/articles/healthcare-apis/tutorial-3-connect-to-endpoint.md",
        "redirect_url": "/azure/healthcare-apis/tutorial-web-app-fhir-server",
        "redirect_document_id": false
    },

    {
        "source_path_from_root": "/articles/healthcare-apis/access-fhir-postman-tutorial.md",
        "redirect_url": "/azure/healthcare-apis/fhir/access-fhir-postman-tutorial",
        "redirect_document_id": true
    },
    {
        "source_path_from_root": "/articles/healthcare-apis/azure-ad-hcapi-token-validation.md",
        "redirect_url": "/azure/healthcare-apis/azure-api-for-fhir/azure-api-fhir-access-token-validation",
        "redirect_document_id": true
    },
    {
        "source_path_from_root": "/articles/healthcare-apis/azure-ad-hcapi.md",
        "redirect_url": "/azure/healthcare-apis/fhir/azure-active-directory-identity-configuration",
        "redirect_document_id": true
    },
    {
        "source_path_from_root": "/articles/healthcare-apis/fhir/azure-api-for-fhir-additional-settings.md",
        "redirect_url": "/azure/healthcare-apis/azure-api-for-fhir/azure-api-for-fhir-additional-settings",
        "redirect_document_id": false
    },
    {
        "source_path_from_root": "/articles/healthcare-apis/configure-azure-rbac.md",
        "redirect_url": "/azure/healthcare-apis/fhir/configure-azure-rbac",
        "redirect_document_id": true
    },
    {
        "source_path_from_root": "/articles/healthcare-apis/configure-cross-origin-resource-sharing.md",
        "redirect_url": "/azure/healthcare-apis/fhir/configure-cross-origin-resource-sharing",
        "redirect_document_id": true
    },
    {
        "source_path_from_root": "/articles/healthcare-apis/configure-database.md",
        "redirect_url": "/azure/healthcare-apis/fhir/configure-database.md",
        "redirect_document_id": false
    },
    {
        "source_path_from_root": "/articles/healthcare-apis/configure-local-rbac.md",
        "redirect_url": "/azure/healthcare-apis/fhir/configure-local-rbac",
        "redirect_document_id": true
    },
    {
        "source_path_from_root": "/articles/healthcare-apis/configure-private-link.md",
        "redirect_url": "/azure/healthcare-apis/fhir/configure-private-link",
        "redirect_document_id": true
    },
    {
        "source_path_from_root": "/articles/healthcare-apis/convert-data.md",
        "redirect_url": "/azure/healthcare-apis/data-transformation/convert-data",
        "redirect_document_id": true
    },
    {
        "source_path_from_root": "/articles/healthcare-apis/customer-managed-key.md",
        "redirect_url": "/azure/healthcare-apis/fhir/customer-managed-key",
        "redirect_document_id": true
    },
    {
        "source_path_from_root": "/articles/healthcare-apis/enable-diagnostic-logging.md",
        "redirect_url": "/azure/healthcare-apis/fhir/enable-diagnostic-logging",
        "redirect_document_id": true
    },
    {
        "source_path_from_root": "/articles/healthcare-apis/fhir-app-registration.md",
        "redirect_url": "/azure/healthcare-apis/fhir/fhir-app-registration",
        "redirect_document_id": true
    },
    {
        "source_path_from_root": "/articles/healthcare-apis/fhir-features-supported.md",
        "redirect_url": "/azure/healthcare-apis/fhir/fhir-features-supported",
        "redirect_document_id": true
    },
    {
        "source_path_from_root": "/articles/healthcare-apis/fhir-paas-cli-quickstart.md",
        "redirect_url": "/azure/healthcare-apis/fhir/fhir-paas-cli-quickstart",
        "redirect_document_id": true
    },
    {
        "source_path_from_root": "/articles/healthcare-apis/fhir-paas-portal-quickstart.md",
        "redirect_url": "/azure/healthcare-apis/fhir/fhir-paas-portal-quickstart",
        "redirect_document_id": true
    },
    {
        "source_path_from_root": "/articles/healthcare-apis/fhir-paas-powershell-quickstart.md",
        "redirect_url": "/azure/healthcare-apis/fhir/fhir-paas-powershell-quickstart",
        "redirect_document_id": true
    },
    {
        "source_path_from_root": "/articles/healthcare-apis/find-identity-object-ids.md",
        "redirect_url": "/azure/healthcare-apis/fhir/find-identity-object-ids",
        "redirect_document_id": true
    },
    {
        "source_path_from_root": "/articles/healthcare-apis/get-healthcare-apis-access-token-cli.md",
        "redirect_url": "/azure/healthcare-apis/fhir/get-healthcare-apis-access-token-cli",
        "redirect_document_id": true
    },
    {
        "source_path_from_root": "/articles/healthcare-apis/overview.md",
        "redirect_url": "/azure/healthcare-apis/fhir/overview",
        "redirect_document_id": true
    },
    {
        "source_path_from_root": "/articles/healthcare-apis/policy-reference.md",
        "redirect_url": "/azure/healthcare-apis/fhir/policy-reference",
        "redirect_document_id": true
    },
    {
        "source_path_from_root": "/articles/healthcare-apis/register-confidential-azure-ad-client-app.md",
        "redirect_url": "/azure/healthcare-apis/fhir/register-confidential-azure-ad-client-app",
        "redirect_document_id": true
    },
    {
        "source_path_from_root": "/articles/healthcare-apis/register-public-azure-ad-client-app.md",
        "redirect_url": "/azure/healthcare-apis/fhir/register-public-azure-ad-client-app",
        "redirect_document_id": true
    },
    {
        "source_path_from_root": "/articles/healthcare-apis/register-resource-azure-ad-client-app.md",
        "redirect_url": "/azure/healthcare-apis/fhir/register-resource-azure-ad-client-app",
        "redirect_document_id": true
    },
    {
        "source_path_from_root": "/articles/healthcare-apis/register-service-azure-ad-client-app.md",
        "redirect_url": "/azure/healthcare-apis/fhir/register-service-azure-ad-client-app",
        "redirect_document_id": true
    },
    {
        "source_path_from_root": "/articles/healthcare-apis/security-controls-policy.md",
        "redirect_url": "/azure/healthcare-apis/fhir/security-controls-policy",
        "redirect_document_id": true
    },
    {
        "source_path_from_root": "/articles/healthcare-apis/tutorial-web-app-fhir-server.md",
        "redirect_url": "/azure/healthcare-apis/fhir/tutorial-web-app-fhir-server",
        "redirect_document_id": true
    },
    {
        "source_path_from_root": "/articles/healthcare-apis/tutorial-web-app-public-app-reg.md",
        "redirect_url": "/azure/healthcare-apis/fhir/tutorial-web-app-public-app-reg",
        "redirect_document_id": true
    },
    {
        "source_path_from_root": "/articles/healthcare-apis/tutorial-web-app-test-postman.md",
        "redirect_url": "/azure/healthcare-apis/fhir/tutorial-web-app-test-postman",
        "redirect_document_id": true
    },
    {
        "source_path_from_root": "/articles/healthcare-apis/tutorial-web-app-write-web-app.md",
        "redirect_url": "/azure/healthcare-apis/fhir/tutorial-web-app-write-web-app",
        "redirect_document_id": true
    },
    {
        "source_path_from_root": "/articles/healthcare-apis/use-custom-headers.md",
        "redirect_url": "/azure/healthcare-apis/fhir/use-custom-headers",
        "redirect_document_id": true
    },
    {
        "source_path_from_root": "/articles/healthcare-apis/use-smart-on-fhir-proxy.md",
        "redirect_url": "/azure/healthcare-apis/fhir/use-smart-on-fhir-proxy",
        "redirect_document_id": true
    },
    {
        "source_path_from_root": "/articles/healthcare-apis/fhir/use-custom-headers.md",
        "redirect_url": "/azure/healthcare-apis/azure-api-for-fhir/use-custom-headers",
        "redirect_document_id": true
    },
    {
        "source_path_from_root": "/articles/healthcare-apis/fhir/enable-diagnostic-logging.md",
        "redirect_url": "/azure/healthcare-apis/azure-api-for-fhir/enable-diagnostic-logging",
        "redirect_document_id": true
    },
    {
        "source_path_from_root": "/articles/healthcare-apis/fhir/access-fhir-postman-tutorial.md",
        "redirect_url": "/azure/healthcare-apis/azure-api-for-fhir/access-fhir-postman-tutorial",
        "redirect_document_id": true
    },
    {
        "source_path_from_root": "/articles/healthcare-apis/fhir/configure-azure-rbac.md",
        "redirect_url": "/azure/healthcare-apis/azure-api-for-fhir/configure-azure-rbac",
        "redirect_document_id": true
    },
    {
        "source_path_from_root": "/articles/healthcare-apis/fhir/configure-database.md",
        "redirect_url": "/azure/healthcare-apis/azure-api-for-fhir/configure-database",
        "redirect_document_id": true
    },
    {
        "source_path_from_root": "/articles/healthcare-apis/fhir/configure-local-rbac.md",
        "redirect_url": "/azure/healthcare-apis/azure-api-for-fhir/configure-local-rbac",
        "redirect_document_id": true
    },
    {
        "source_path_from_root": "/articles/healthcare-apis/fhir/configure-private-link.md",
        "redirect_url": "/azure/healthcare-apis/azure-api-for-fhir/configure-private-link",
        "redirect_document_id": true
    },
    {
        "source_path_from_root": "/articles/healthcare-apis/fhir/convert-data.md",
        "redirect_url": "/azure/healthcare-apis/azure-api-for-fhir/convert-data",
        "redirect_document_id": true
    },
    {
        "source_path_from_root": "/articles/healthcare-apis/fhir/customer-managed-key.md",
        "redirect_url": "/azure/healthcare-apis/azure-api-for-fhir/customer-managed-key",
        "redirect_document_id": true
    },
    {
        "source_path_from_root": "/articles/healthcare-apis/fhir/device-data-through-iot-hub.md",
        "redirect_url": "/azure/healthcare-apis/azure-api-for-fhir/device-data-through-iot-hub",
        "redirect_document_id": true
    },
    {
        "source_path_from_root": "/articles/healthcare-apis/fhir/fhir-app-registration.md",
        "redirect_url": "/azure/healthcare-apis/azure-api-for-fhir/fhir-app-registration",
        "redirect_document_id": true
    },
    {
        "source_path_from_root": "/articles/healthcare-apis/fhir/fhir-github-projects.md",
        "redirect_url": "/azure/healthcare-apis/azure-api-for-fhir/fhir-github-projects",
        "redirect_document_id": true
    },
    {
        "source_path_from_root": "/articles/healthcare-apis/fhir/fhir-paas-arm-template-quickstart.md",
        "redirect_url": "/azure/healthcare-apis/azure-api-for-fhir/azure-api-fhir-resource-manager-template",
        "redirect_document_id": true
    },
    {
        "source_path_from_root": "/articles/healthcare-apis/fhir/fhir-paas-cli-quickstart.md",
        "redirect_url": "/azure/healthcare-apis/azure-api-for-fhir/fhir-paas-cli-quickstart",
        "redirect_document_id": true
    },
    {
        "source_path_from_root": "/articles/healthcare-apis/fhir/fhir-paas-portal-quickstart.md",
        "redirect_url": "/azure/healthcare-apis/azure-api-for-fhir/fhir-paas-portal-quickstart",
        "redirect_document_id": true
    },
    {
        "source_path_from_root": "/articles/healthcare-apis/fhir/fhir-paas-powershell-quickstart.md",
        "redirect_url": "/azure/healthcare-apis/azure-api-for-fhir/fhir-paas-powershell-quickstart",
        "redirect_document_id": true
    },
    {
        "source_path_from_root": "/articles/healthcare-apis/fhir/find-identity-object-ids.md",
        "redirect_url": "/azure/healthcare-apis/azure-api-for-fhir/find-identity-object-ids",
        "redirect_document_id": true
    },
    {
        "source_path_from_root": "/articles/healthcare-apis/fhir/iot-data-flow.md",
        "redirect_url": "/azure/healthcare-apis/azure-api-for-fhir/iot-data-flow",
        "redirect_document_id": true
    },
    {
        "source_path_from_root": "/articles/healthcare-apis/fhir/iot-fhir-arm-template-quickstart.md",
        "redirect_url": "/azure/healthcare-apis/azure-api-for-fhir/iot-azure-resource-manager-template-quickstart",
        "redirect_document_id": true
    },
    {
        "source_path_from_root": "/articles/healthcare-apis/fhir/iot-fhir-portal-quickstart.md",
        "redirect_url": "/azure/healthcare-apis/azure-api-for-fhir/iot-fhir-portal-quickstart",
        "redirect_document_id": true
    },
    {
        "source_path_from_root": "/articles/healthcare-apis/fhir/iot-mapping-templates.md",
        "redirect_url": "/azure/healthcare-apis/azure-api-for-fhir/iot-mapping-templates",
        "redirect_document_id": true
    },
    {
        "source_path_from_root": "/articles/healthcare-apis/fhir/iot-metrics-diagnostics-export.md",
        "redirect_url": "/azure/healthcare-apis/azure-api-for-fhir/iot-metrics-diagnostics-export",
        "redirect_document_id": true
    },
    {
        "source_path_from_root": "/articles/healthcare-apis/fhir/iot-metrics-display.md",
        "redirect_url": "/azure/healthcare-apis/azure-api-for-fhir/iot-metrics-display",
        "redirect_document_id": true
    },
    {
        "source_path_from_root": "/articles/healthcare-apis/fhir/iot-troubleshoot-guide.md",
        "redirect_url": "/azure/healthcare-apis/azure-api-for-fhir/iot-troubleshoot-guide",
        "redirect_document_id": true
    },
    {
        "source_path_from_root": "/articles/healthcare-apis/fhir/partner-ecosystem.md",
        "redirect_url": "/azure/healthcare-apis/azure-api-for-fhir/partner-ecosystem",
        "redirect_document_id": true
    },
    {
        "source_path_from_root": "/articles/healthcare-apis/fhir/policy-reference.md",
        "redirect_url": "/azure/healthcare-apis/azure-api-for-fhir/policy-reference",
        "redirect_document_id": true
    },
    {
        "source_path_from_root": "/articles/healthcare-apis/fhir/register-confidential-azure-ad-client-app.md",
        "redirect_url": "/azure/healthcare-apis/azure-api-for-fhir/register-confidential-azure-ad-client-app",
        "redirect_document_id": true
    },
    {
        "source_path_from_root": "/articles/healthcare-apis/fhir/register-public-azure-ad-client-app.md",
        "redirect_url": "/azure/healthcare-apis/azure-api-for-fhir/register-public-azure-ad-client-app",
        "redirect_document_id": true
    },
    {
        "source_path_from_root": "/articles/healthcare-apis/fhir/register-resource-azure-ad-client-app.md",
        "redirect_url": "/azure/healthcare-apis/azure-api-for-fhir/register-resource-azure-ad-client-app",
        "redirect_document_id": false
    },
    {
        "source_path_from_root": "/articles/healthcare-apis/fhir/register-service-azure-ad-client-app.md",
        "redirect_url": "/azure/healthcare-apis/azure-api-for-fhir/register-service-azure-ad-client-app",
        "redirect_document_id": false
    },
    {
        "source_path_from_root": "/articles/healthcare-apis/fhir/tutorial-web-app-fhir-server.md",
        "redirect_url": "/azure/healthcare-apis/azure-api-for-fhir/tutorial-web-app-fhir-server",
        "redirect_document_id": true
    },
    {
        "source_path_from_root": "/articles/healthcare-apis/fhir/tutorial-web-app-public-app-reg.md",
        "redirect_url": "/azure/healthcare-apis/azure-api-for-fhir/tutorial-web-app-public-app-reg",
        "redirect_document_id": true
    },
    {
        "source_path_from_root": "/articles/healthcare-apis/fhir/tutorial-web-app-test-postman.md",
        "redirect_url": "/azure/healthcare-apis/azure-api-for-fhir/tutorial-web-app-test-postman",
        "redirect_document_id": true
    },
    {
        "source_path_from_root": "/articles/healthcare-apis/fhir/tutorial-web-app-write-web-app.md",
        "redirect_url": "/azure/healthcare-apis/azure-api-for-fhir/tutorial-web-app-write-web-app",
        "redirect_document_id": true
    },
    {
        "source_path_from_root": "/articles/healthcare-apis/fhir/use-smart-on-fhir-proxy.md",
        "redirect_url": "/azure/healthcare-apis/azure-api-for-fhir/use-smart-on-fhir-proxy",
        "redirect_document_id": true
    },
    {
        "source_path_from_root": "/articles/healthcare-apis/fhir/de-identified-export.md",
        "redirect_url": "/azure/healthcare-apis/data-transformation/de-identified-export",
        "redirect_document_id": true
    },
    {
        "source_path_from_root": "/articles/healthcare-apis/fhir/export-data.md",
        "redirect_url": "/azure/healthcare-apis/data-transformation/export-data",
        "redirect_document_id": true
    },
    {
        "source_path_from_root": "/articles/healthcare-apis/fhir/move-to-synapse.md",
        "redirect_url": "/azure/healthcare-apis/data-transformation/move-to-synapse",
        "redirect_document_id": true
    },
    {
        "source_path_from_root": "/articles/healthcare-apis/fhir/configure-export-data.md",
        "redirect_url": "/azure/healthcare-apis/data-transformation/configure-export-data",
        "redirect_document_id": true
    },
    {
        "source_path_from_root": "/articles/healthcare-apis/fhir/autoscale-azure-api-fhir.md",
        "redirect_url": "/azure/healthcare-apis/azure-api-for-fhir/autoscale-azure-api-fhir",
        "redirect_document_id": false
    },
    {
        "source_path_from_root": "/articles/healthcare-apis/fhir/disaster-recovery.md",
        "redirect_url": "/azure/healthcare-apis/azure-api-for-fhir/disaster-recovery",
        "redirect_document_id": false
    },
    {
        "source_path_from_root": "/articles/healthcare-apis/azure-api-for-fhir/azure-ad-hcapi.md",
        "redirect_url": "/azure/healthcare-apis/azure-api-for-fhir/azure-active-directory-identity-configuration",
        "redirect_document_id": false
    },
    {
        "source_path_from_root": "/articles/healthcare-apis/azure-api-for-fhir/cms-tutorial-introduction.md",
        "redirect_url": "/azure/healthcare-apis/azure-api-for-fhir/centers-for-medicare-tutorial-introduction",
        "redirect_document_id": false
    },
    {
        "source_path_from_root": "/articles/healthcare-apis/fhir/cms-tutorial-introduction.md",
        "redirect_url": "/azure/healthcare-apis/fhir/centers-for-medicare-tutorial-introduction",
        "redirect_document_id": false
    },
    {
        "source_path_from_root": "/articles/healthcare-apis/azure-api-for-fhir/iot-fhir-arm-template-quickstart.md",
        "redirect_url": "/azure/healthcare-apis/azure-api-for-fhir/iot-azure-resource-manager-template-quickstart",
        "redirect_document_id": false
    },
    {
        "source_path_from_root": "/articles/healthcare-apis/fhir/azure-ad-hcapi.md",
        "redirect_url": "/azure/healthcare-apis/azure-api-for-fhir/azure-active-directory-identity-configuration",
        "redirect_document_id": false
    },
    {
        "source_path_from_root": "/articles/healthcare-apis/fhir/azure-ad-hcapi-token-validation.md",
        "redirect_url": "/azure/healthcare-apis/fhir/fhir-service-access-token-validation",
        "redirect_document_id": false
    },
    {
        "source_path_from_root": "/articles/healthcare-apis/fhir/fhir-arm-template-quickstart.md",
        "redirect_url": "/azure/healthcare-apis/fhir/fhir-service-resource-manager-template",
        "redirect_document_id": true
    }
  ]
}
